^C:\USERS\KADE\DESKTOP\OPENGL(BASE)\OPENGL(BASE)\RELEASE\APPLICATION.OBJ|C:\USERS\KADE\DESKTOP\OPENGL(BASE)\OPENGL(BASE)\RELEASE\CAMERA.OBJ|C:\USERS\KADE\DESKTOP\OPENGL(BASE)\OPENGL(BASE)\RELEASE\DELTATIME.OBJ|C:\USERS\KADE\DESKTOP\OPENGL(BASE)\OPENGL(BASE)\RELEASE\FLYCAMERA.OBJ|C:\USERS\KADE\DESKTOP\OPENGL(BASE)\OPENGL(BASE)\RELEASE\GAMEOBJECT.OBJ|C:\USERS\KADE\DESKTOP\OPENGL(BASE)\OPENGL(BASE)\RELEASE\MAIN.OBJ|C:\USERS\KADE\DESKTOP\OPENGL(BASE)\OPENGL(BASE)\RELEASE\PROGRAM.OBJ|C:\USERS\KADE\DESKTOP\OPENGL(BASE)\OPENGL(BASE)\RELEASE\TEXTURE.OBJ
C:\PROGRA~2\SEARCHPROTECT\SEARCHPROTECT\BIN\VC32LOADER.DLL
C:\WINDOWS\GLOBALIZATION\SORTING\SORTDEFAULT.NLS
C:\USERS\KADE\DESKTOP\OPENGL(BASE)\OPENGL(BASE)\DEP\FBXLOADER\VS2015\FBXLOADER.LIB
C:\PROGRAM FILES (X86)\WINDOWS KITS\8.1\LIB\WINV6.3\UM\X86\OPENGL32.LIB
C:\USERS\KADE\DESKTOP\OPENGL(BASE)\OPENGL(BASE)\DEP\GLFW\LIB\GLFW3.LIB
C:\PROGRAM FILES (X86)\WINDOWS KITS\8.1\LIB\WINV6.3\UM\X86\KERNEL32.LIB
C:\PROGRAM FILES (X86)\WINDOWS KITS\8.1\LIB\WINV6.3\UM\X86\USER32.LIB
C:\PROGRAM FILES (X86)\WINDOWS KITS\8.1\LIB\WINV6.3\UM\X86\GDI32.LIB
C:\PROGRAM FILES (X86)\WINDOWS KITS\8.1\LIB\WINV6.3\UM\X86\WINSPOOL.LIB
C:\PROGRAM FILES (X86)\WINDOWS KITS\8.1\LIB\WINV6.3\UM\X86\COMDLG32.LIB
C:\PROGRAM FILES (X86)\WINDOWS KITS\8.1\LIB\WINV6.3\UM\X86\ADVAPI32.LIB
C:\PROGRAM FILES (X86)\WINDOWS KITS\8.1\LIB\WINV6.3\UM\X86\SHELL32.LIB
C:\PROGRAM FILES (X86)\WINDOWS KITS\8.1\LIB\WINV6.3\UM\X86\OLE32.LIB
C:\PROGRAM FILES (X86)\WINDOWS KITS\8.1\LIB\WINV6.3\UM\X86\OLEAUT32.LIB
C:\PROGRAM FILES (X86)\WINDOWS KITS\8.1\LIB\WINV6.3\UM\X86\UUID.LIB
C:\PROGRAM FILES (X86)\WINDOWS KITS\8.1\LIB\WINV6.3\UM\X86\ODBC32.LIB
C:\PROGRAM FILES (X86)\WINDOWS KITS\8.1\LIB\WINV6.3\UM\X86\ODBCCP32.LIB
C:\USERS\KADE\DESKTOP\OPENGL(BASE)\OPENGL(BASE)\RELEASE\CAMERA.OBJ
C:\USERS\KADE\DESKTOP\OPENGL(BASE)\OPENGL(BASE)\RELEASE\FLYCAMERA.OBJ
C:\USERS\KADE\DESKTOP\OPENGL(BASE)\OPENGL(BASE)\RELEASE\PROGRAM.OBJ
C:\USERS\KADE\DESKTOP\OPENGL(BASE)\OPENGL(BASE)\RELEASE\GAMEOBJECT.OBJ
C:\USERS\KADE\DESKTOP\OPENGL(BASE)\OPENGL(BASE)\RELEASE\APPLICATION.OBJ
C:\USERS\KADE\DESKTOP\OPENGL(BASE)\OPENGL(BASE)\RELEASE\MAIN.OBJ
C:\USERS\KADE\DESKTOP\OPENGL(BASE)\OPENGL(BASE)\RELEASE\DELTATIME.OBJ
C:\USERS\KADE\DESKTOP\OPENGL(BASE)\OPENGL(BASE)\RELEASE\TEXTURE.OBJ
F:\VISUAL STUDIOS\VC\BIN\C2.DLL
F:\VISUAL STUDIOS\VC\LIB\MSVCPRT.LIB
F:\VISUAL STUDIOS\VC\LIB\MSVCRT.LIB
F:\VISUAL STUDIOS\VC\LIB\OLDNAMES.LIB
F:\VISUAL STUDIOS\VC\LIB\VCRUNTIME.LIB
C:\PROGRAM FILES (X86)\WINDOWS KITS\10\LIB\10.0.10240.0\UCRT\X86\UCRT.LIB
F:\VISUAL STUDIOS\VC\BIN\1033\LINKUI.DLL
C:\PROGRAM FILES (X86)\WINDOWS KITS\8.1\BIN\X86\RC.EXE
F:\VISUAL STUDIOS\VC\BIN\CVTRES.EXE
F:\VISUAL STUDIOS\VC\BIN\MSPDBSRV.EXE
C:\WINDOWS\SYSTEM32\TZRES.DLL
