^C:\USERS\KADE\DOCUMENTS\VISUAL STUDIO 2015\PROJECTS\OPENGL(BASE)\OPENGL(BASE)\SRC\APPLICATION.CPP
/c /I"C:\USERS\KADE\DOCUMENTS\VISUAL STUDIO 2015\PROJECTS\OPENGL(BASE)\/OPENGL(BASE)/DEP" /I"C:\USERS\KADE\DOCUMENTS\VISUAL STUDIO 2015\PROJECTS\OPENGL(BASE)\/OPENGL(BASE)/HEADERS/" /ZI /nologo /W3 /WX- /Od /Oy- /D WIN32 /D _DEBUG /D _CONSOLE /D _UNICODE /D UNICODE /Gm /EHsc /RTC1 /MDd /GS /fp:precise /Zc:wchar_t /Zc:forScope /Zc:inline /Fo"DEBUG\\" /Fd"DEBUG\VC140.PDB" /Gd /TP /analyze- C:\USERS\KADE\DOCUMENTS\VISUAL STUDIO 2015\PROJECTS\OPENGL(BASE)\OPENGL(BASE)\SRC\APPLICATION.CPP
^C:\USERS\KADE\DOCUMENTS\VISUAL STUDIO 2015\PROJECTS\OPENGL(BASE)\OPENGL(BASE)\SRC\MAIN.CPP
/c /I"C:\USERS\KADE\DOCUMENTS\VISUAL STUDIO 2015\PROJECTS\OPENGL(BASE)\/OPENGL(BASE)/DEP" /I"C:\USERS\KADE\DOCUMENTS\VISUAL STUDIO 2015\PROJECTS\OPENGL(BASE)\/OPENGL(BASE)/HEADERS/" /ZI /nologo /W3 /WX- /Od /Oy- /D WIN32 /D _DEBUG /D _CONSOLE /D _UNICODE /D UNICODE /Gm /EHsc /RTC1 /MDd /GS /fp:precise /Zc:wchar_t /Zc:forScope /Zc:inline /Fo"DEBUG\\" /Fd"DEBUG\VC140.PDB" /Gd /TP /analyze- C:\USERS\KADE\DOCUMENTS\VISUAL STUDIO 2015\PROJECTS\OPENGL(BASE)\OPENGL(BASE)\SRC\MAIN.CPP
^C:\USERS\KADE\DOCUMENTS\VISUAL STUDIO 2015\PROJECTS\OPENGL(BASE)\OPENGL(BASE)\SRC\GAMEOBJECT.CPP
/c /I"C:\USERS\KADE\DOCUMENTS\VISUAL STUDIO 2015\PROJECTS\OPENGL(BASE)\/OPENGL(BASE)/DEP" /I"C:\USERS\KADE\DOCUMENTS\VISUAL STUDIO 2015\PROJECTS\OPENGL(BASE)\/OPENGL(BASE)/HEADERS/" /ZI /nologo /W3 /WX- /Od /Oy- /D WIN32 /D _DEBUG /D _CONSOLE /D _UNICODE /D UNICODE /Gm /EHsc /RTC1 /MDd /GS /fp:precise /Zc:wchar_t /Zc:forScope /Zc:inline /Fo"DEBUG\\" /Fd"DEBUG\VC140.PDB" /Gd /TP /analyze- C:\USERS\KADE\DOCUMENTS\VISUAL STUDIO 2015\PROJECTS\OPENGL(BASE)\OPENGL(BASE)\SRC\GAMEOBJECT.CPP
^C:\USERS\KADE\DOCUMENTS\VISUAL STUDIO 2015\PROJECTS\OPENGL(BASE)\OPENGL(BASE)\SRC\TIME.CPP
/c /I"C:\USERS\KADE\DOCUMENTS\VISUAL STUDIO 2015\PROJECTS\OPENGL(BASE)\/OPENGL(BASE)/DEP" /I"C:\USERS\KADE\DOCUMENTS\VISUAL STUDIO 2015\PROJECTS\OPENGL(BASE)\/OPENGL(BASE)/HEADERS/" /ZI /nologo /W3 /WX- /Od /Oy- /D WIN32 /D _DEBUG /D _CONSOLE /D _UNICODE /D UNICODE /Gm /EHsc /RTC1 /MDd /GS /fp:precise /Zc:wchar_t /Zc:forScope /Zc:inline /Fo"DEBUG\\" /Fd"DEBUG\VC140.PDB" /Gd /TP /analyze- C:\USERS\KADE\DOCUMENTS\VISUAL STUDIO 2015\PROJECTS\OPENGL(BASE)\OPENGL(BASE)\SRC\TIME.CPP
^C:\USERS\KADE\DOCUMENTS\VISUAL STUDIO 2015\PROJECTS\OPENGL(BASE)\OPENGL(BASE)\DEP\GL_CORE_4_4.CPP
/c /I"C:\USERS\KADE\DOCUMENTS\VISUAL STUDIO 2015\PROJECTS\OPENGL(BASE)\/OPENGL(BASE)/DEP/" /I"C:\USERS\KADE\DOCUMENTS\VISUAL STUDIO 2015\PROJECTS\OPENGL(BASE)\/OPENGL(BASE)/HEADERS/" /ZI /nologo /W3 /WX- /Od /Oy- /D WIN32 /D _DEBUG /D _CONSOLE /D _UNICODE /D UNICODE /Gm /EHsc /RTC1 /MDd /GS /fp:precise /Zc:wchar_t /Zc:forScope /Zc:inline /Fo"DEBUG\\" /Fd"DEBUG\VC140.PDB" /Gd /TP /analyze- C:\USERS\KADE\DOCUMENTS\VISUAL STUDIO 2015\PROJECTS\OPENGL(BASE)\OPENGL(BASE)\DEP\GL_CORE_4_4.CPP
^C:\USERS\KADE\DESKTOP\OPENGL(BASE)\OPENGL(BASE)\SRC\GAMEOBJECT.CPP
/c /I"C:\USERS\KADE\DESKTOP\OPENGL(BASE)\/OPENGL(BASE)/DEP" /I"C:\USERS\KADE\DESKTOP\OPENGL(BASE)\/OPENGL(BASE)/HEADERS/" /ZI /nologo /W3 /WX- /Od /Oy- /D WIN32 /D _DEBUG /D _CONSOLE /D _UNICODE /D UNICODE /Gm /EHsc /RTC1 /MDd /GS /fp:precise /Zc:wchar_t /Zc:forScope /Zc:inline /Fo"DEBUG\\" /Fd"DEBUG\VC140.PDB" /Gd /TP /analyze- C:\USERS\KADE\DESKTOP\OPENGL(BASE)\OPENGL(BASE)\SRC\GAMEOBJECT.CPP
^C:\USERS\KADE\DESKTOP\OPENGL(BASE)\OPENGL(BASE)\SRC\APPLICATION.CPP
/c /I"C:\USERS\KADE\DESKTOP\OPENGL(BASE)\/OPENGL(BASE)/DEP" /I"C:\USERS\KADE\DESKTOP\OPENGL(BASE)\/OPENGL(BASE)/HEADERS/" /ZI /nologo /W3 /WX- /Od /Oy- /D WIN32 /D _DEBUG /D _CONSOLE /D _UNICODE /D UNICODE /Gm /EHsc /RTC1 /MDd /GS /fp:precise /Zc:wchar_t /Zc:forScope /Zc:inline /Fo"DEBUG\\" /Fd"DEBUG\VC140.PDB" /Gd /TP /analyze- C:\USERS\KADE\DESKTOP\OPENGL(BASE)\OPENGL(BASE)\SRC\APPLICATION.CPP
^C:\USERS\KADE\DESKTOP\OPENGL(BASE)\OPENGL(BASE)\SRC\MAIN.CPP
/c /I"C:\USERS\KADE\DESKTOP\OPENGL(BASE)\/OPENGL(BASE)/DEP" /I"C:\USERS\KADE\DESKTOP\OPENGL(BASE)\/OPENGL(BASE)/HEADERS/" /ZI /nologo /W3 /WX- /Od /Oy- /D WIN32 /D _DEBUG /D _CONSOLE /D _UNICODE /D UNICODE /Gm /EHsc /RTC1 /MDd /GS /fp:precise /Zc:wchar_t /Zc:forScope /Zc:inline /Fo"DEBUG\\" /Fd"DEBUG\VC140.PDB" /Gd /TP /analyze- C:\USERS\KADE\DESKTOP\OPENGL(BASE)\OPENGL(BASE)\SRC\MAIN.CPP
^C:\USERS\KADE\DESKTOP\OPENGL(BASE)\OPENGL(BASE)\SRC\TIME.CPP
/c /I"C:\USERS\KADE\DESKTOP\OPENGL(BASE)\/OPENGL(BASE)/DEP" /I"C:\USERS\KADE\DESKTOP\OPENGL(BASE)\/OPENGL(BASE)/HEADERS/" /ZI /nologo /W3 /WX- /Od /Oy- /D WIN32 /D _DEBUG /D _CONSOLE /D _UNICODE /D UNICODE /Gm /EHsc /RTC1 /MDd /GS /fp:precise /Zc:wchar_t /Zc:forScope /Zc:inline /Fo"DEBUG\\" /Fd"DEBUG\VC140.PDB" /Gd /TP /analyze- C:\USERS\KADE\DESKTOP\OPENGL(BASE)\OPENGL(BASE)\SRC\TIME.CPP
^C:\USERS\KADE\DESKTOP\OPENGL(BASE)\OPENGL(BASE)\SRC\DELTATIME.CPP
/c /I"C:\USERS\KADE\DESKTOP\OPENGL(BASE)\/OPENGL(BASE)/DEP" /I"C:\USERS\KADE\DESKTOP\OPENGL(BASE)\/OPENGL(BASE)/HEADERS/" /ZI /nologo /W3 /WX- /Od /Oy- /D WIN32 /D _DEBUG /D _CONSOLE /D _UNICODE /D UNICODE /Gm /EHsc /RTC1 /MDd /GS /fp:precise /Zc:wchar_t /Zc:forScope /Zc:inline /Fo"DEBUG\\" /Fd"DEBUG\VC140.PDB" /Gd /TP /analyze- C:\USERS\KADE\DESKTOP\OPENGL(BASE)\OPENGL(BASE)\SRC\DELTATIME.CPP
^C:\USERS\KADE\DESKTOP\OPENGL(BASE)\OPENGL(BASE)\SRC\PROGRAM.CPP
/c /I"C:\USERS\KADE\DESKTOP\OPENGL(BASE)\/OPENGL(BASE)/DEP" /I"C:\USERS\KADE\DESKTOP\OPENGL(BASE)\/OPENGL(BASE)/HEADERS/" /ZI /nologo /W3 /WX- /Od /Oy- /D WIN32 /D _DEBUG /D _CONSOLE /D _UNICODE /D UNICODE /Gm /EHsc /RTC1 /MDd /GS /fp:precise /Zc:wchar_t /Zc:forScope /Zc:inline /Fo"DEBUG\\" /Fd"DEBUG\VC140.PDB" /Gd /TP /analyze- C:\USERS\KADE\DESKTOP\OPENGL(BASE)\OPENGL(BASE)\SRC\PROGRAM.CPP
^C:\USERS\KADE\DESKTOP\OPENGL(BASE)\OPENGL(BASE)\SRC\CAMERA.CPP
/c /I"C:\USERS\KADE\DESKTOP\OPENGL(BASE)\/OPENGL(BASE)/DEP" /I"C:\USERS\KADE\DESKTOP\OPENGL(BASE)\/OPENGL(BASE)/HEADERS/" /ZI /nologo /W3 /WX- /Od /Oy- /D WIN32 /D _DEBUG /D _CONSOLE /D _UNICODE /D UNICODE /Gm /EHsc /RTC1 /MDd /GS /fp:precise /Zc:wchar_t /Zc:forScope /Zc:inline /Fo"DEBUG\\" /Fd"DEBUG\VC140.PDB" /Gd /TP /analyze- C:\USERS\KADE\DESKTOP\OPENGL(BASE)\OPENGL(BASE)\SRC\CAMERA.CPP
^C:\USERS\KADE\DESKTOP\OPENGL(BASE)\OPENGL(BASE)\SRC\FLYCAMERA.CPP
/c /I"C:\USERS\KADE\DESKTOP\OPENGL(BASE)\/OPENGL(BASE)/DEP" /I"C:\USERS\KADE\DESKTOP\OPENGL(BASE)\/OPENGL(BASE)/HEADERS/" /ZI /nologo /W3 /WX- /Od /Oy- /D WIN32 /D _DEBUG /D _CONSOLE /D _UNICODE /D UNICODE /Gm /EHsc /RTC1 /MDd /GS /fp:precise /Zc:wchar_t /Zc:forScope /Zc:inline /Fo"DEBUG\\" /Fd"DEBUG\VC140.PDB" /Gd /TP /analyze- C:\USERS\KADE\DESKTOP\OPENGL(BASE)\OPENGL(BASE)\SRC\FLYCAMERA.CPP
^C:\USERS\KADE\DESKTOP\OPENGL(BASE)\OPENGL(BASE)\SRC\TEXTURE.CPP
/c /I"C:\USERS\KADE\DESKTOP\OPENGL(BASE)\/OPENGL(BASE)/DEP" /I"C:\USERS\KADE\DESKTOP\OPENGL(BASE)\/OPENGL(BASE)/HEADERS/" /ZI /nologo /W3 /WX- /Od /Oy- /D WIN32 /D _DEBUG /D _CONSOLE /D _UNICODE /D UNICODE /Gm /EHsc /RTC1 /MDd /GS /fp:precise /Zc:wchar_t /Zc:forScope /Zc:inline /Fo"DEBUG\\" /Fd"DEBUG\VC140.PDB" /Gd /TP /analyze- C:\USERS\KADE\DESKTOP\OPENGL(BASE)\OPENGL(BASE)\SRC\TEXTURE.CPP
^C:\USERS\KADE\DESKTOP\OPENGL(BASE)\OPENGL(BASE)\SRC\DEBUG.CPP
/c /I"C:\USERS\KADE\DESKTOP\OPENGL(BASE)\/OPENGL(BASE)/DEP" /I"C:\USERS\KADE\DESKTOP\OPENGL(BASE)\/OPENGL(BASE)/HEADERS/" /ZI /nologo /W3 /WX- /Od /Oy- /D WIN32 /D _DEBUG /D _CONSOLE /D _UNICODE /D UNICODE /Gm /EHsc /RTC1 /MDd /GS /fp:precise /Zc:wchar_t /Zc:forScope /Zc:inline /Fo"DEBUG\\" /Fd"DEBUG\VC140.PDB" /Gd /TP /analyze- C:\USERS\KADE\DESKTOP\OPENGL(BASE)\OPENGL(BASE)\SRC\DEBUG.CPP
^C:\USERS\KADE\DESKTOP\OPENGL(BASE)\OPENGL(BASE)\SRC\GRID.CPP
/c /I"C:\USERS\KADE\DESKTOP\OPENGL(BASE)\/OPENGL(BASE)/DEP" /I"C:\USERS\KADE\DESKTOP\OPENGL(BASE)\/OPENGL(BASE)/HEADERS/" /ZI /nologo /W3 /WX- /Od /Oy- /D WIN32 /D _DEBUG /D _CONSOLE /D _UNICODE /D UNICODE /Gm /EHsc /RTC1 /MDd /GS /fp:precise /Zc:wchar_t /Zc:forScope /Zc:inline /Fo"DEBUG\\" /Fd"DEBUG\VC140.PDB" /Gd /TP /analyze- C:\USERS\KADE\DESKTOP\OPENGL(BASE)\OPENGL(BASE)\SRC\GRID.CPP
^C:\USERS\KADE.BROWN\DESKTOP\OPENGL(BASE)\OPENGL(BASE)\SRC\GRID.CPP
/c /I"C:\USERS\KADE.BROWN\DESKTOP\OPENGL(BASE)\/OPENGL(BASE)/DEP" /I"C:\USERS\KADE.BROWN\DESKTOP\OPENGL(BASE)\/OPENGL(BASE)/HEADERS/" /ZI /nologo /W3 /WX- /Od /Oy- /D WIN32 /D _DEBUG /D _CONSOLE /D _UNICODE /D UNICODE /Gm /EHsc /RTC1 /MDd /GS /fp:precise /Zc:wchar_t /Zc:forScope /Zc:inline /Fo"DEBUG\\" /Fd"DEBUG\VC140.PDB" /Gd /TP /analyze- C:\USERS\KADE.BROWN\DESKTOP\OPENGL(BASE)\OPENGL(BASE)\SRC\GRID.CPP
^C:\USERS\KADE.BROWN\DESKTOP\OPENGL(BASE)\OPENGL(BASE)\SRC\DEBUG.CPP
/c /I"C:\USERS\KADE.BROWN\DESKTOP\OPENGL(BASE)\/OPENGL(BASE)/DEP" /I"C:\USERS\KADE.BROWN\DESKTOP\OPENGL(BASE)\/OPENGL(BASE)/HEADERS/" /ZI /nologo /W3 /WX- /Od /Oy- /D WIN32 /D _DEBUG /D _CONSOLE /D _UNICODE /D UNICODE /Gm /EHsc /RTC1 /MDd /GS /fp:precise /Zc:wchar_t /Zc:forScope /Zc:inline /Fo"DEBUG\\" /Fd"DEBUG\VC140.PDB" /Gd /TP /analyze- C:\USERS\KADE.BROWN\DESKTOP\OPENGL(BASE)\OPENGL(BASE)\SRC\DEBUG.CPP
^C:\USERS\KADE.BROWN\DESKTOP\OPENGL(BASE)\OPENGL(BASE)\SRC\CAMERA.CPP
/c /I"C:\USERS\KADE.BROWN\DESKTOP\OPENGL(BASE)\/OPENGL(BASE)/DEP" /I"C:\USERS\KADE.BROWN\DESKTOP\OPENGL(BASE)\/OPENGL(BASE)/HEADERS/" /ZI /nologo /W3 /WX- /Od /Oy- /D WIN32 /D _DEBUG /D _CONSOLE /D _UNICODE /D UNICODE /Gm /EHsc /RTC1 /MDd /GS /fp:precise /Zc:wchar_t /Zc:forScope /Zc:inline /Fo"DEBUG\\" /Fd"DEBUG\VC140.PDB" /Gd /TP /analyze- C:\USERS\KADE.BROWN\DESKTOP\OPENGL(BASE)\OPENGL(BASE)\SRC\CAMERA.CPP
^C:\USERS\KADE.BROWN\DESKTOP\OPENGL(BASE)\OPENGL(BASE)\SRC\FLYCAMERA.CPP
/c /I"C:\USERS\KADE.BROWN\DESKTOP\OPENGL(BASE)\/OPENGL(BASE)/DEP" /I"C:\USERS\KADE.BROWN\DESKTOP\OPENGL(BASE)\/OPENGL(BASE)/HEADERS/" /ZI /nologo /W3 /WX- /Od /Oy- /D WIN32 /D _DEBUG /D _CONSOLE /D _UNICODE /D UNICODE /Gm /EHsc /RTC1 /MDd /GS /fp:precise /Zc:wchar_t /Zc:forScope /Zc:inline /Fo"DEBUG\\" /Fd"DEBUG\VC140.PDB" /Gd /TP /analyze- C:\USERS\KADE.BROWN\DESKTOP\OPENGL(BASE)\OPENGL(BASE)\SRC\FLYCAMERA.CPP
^C:\USERS\KADE.BROWN\DESKTOP\OPENGL(BASE)\OPENGL(BASE)\SRC\PROGRAM.CPP
/c /I"C:\USERS\KADE.BROWN\DESKTOP\OPENGL(BASE)\/OPENGL(BASE)/DEP" /I"C:\USERS\KADE.BROWN\DESKTOP\OPENGL(BASE)\/OPENGL(BASE)/HEADERS/" /ZI /nologo /W3 /WX- /Od /Oy- /D WIN32 /D _DEBUG /D _CONSOLE /D _UNICODE /D UNICODE /Gm /EHsc /RTC1 /MDd /GS /fp:precise /Zc:wchar_t /Zc:forScope /Zc:inline /Fo"DEBUG\\" /Fd"DEBUG\VC140.PDB" /Gd /TP /analyze- C:\USERS\KADE.BROWN\DESKTOP\OPENGL(BASE)\OPENGL(BASE)\SRC\PROGRAM.CPP
^C:\USERS\KADE.BROWN\DESKTOP\OPENGL(BASE)\OPENGL(BASE)\SRC\GAMEOBJECT.CPP
/c /I"C:\USERS\KADE.BROWN\DESKTOP\OPENGL(BASE)\/OPENGL(BASE)/DEP" /I"C:\USERS\KADE.BROWN\DESKTOP\OPENGL(BASE)\/OPENGL(BASE)/HEADERS/" /ZI /nologo /W3 /WX- /Od /Oy- /D WIN32 /D _DEBUG /D _CONSOLE /D _UNICODE /D UNICODE /Gm /EHsc /RTC1 /MDd /GS /fp:precise /Zc:wchar_t /Zc:forScope /Zc:inline /Fo"DEBUG\\" /Fd"DEBUG\VC140.PDB" /Gd /TP /analyze- C:\USERS\KADE.BROWN\DESKTOP\OPENGL(BASE)\OPENGL(BASE)\SRC\GAMEOBJECT.CPP
^C:\USERS\KADE.BROWN\DESKTOP\OPENGL(BASE)\OPENGL(BASE)\SRC\APPLICATION.CPP
/c /I"C:\USERS\KADE.BROWN\DESKTOP\OPENGL(BASE)\/OPENGL(BASE)/DEP" /I"C:\USERS\KADE.BROWN\DESKTOP\OPENGL(BASE)\/OPENGL(BASE)/HEADERS/" /ZI /nologo /W3 /WX- /Od /Oy- /D WIN32 /D _DEBUG /D _CONSOLE /D _UNICODE /D UNICODE /Gm /EHsc /RTC1 /MDd /GS /fp:precise /Zc:wchar_t /Zc:forScope /Zc:inline /Fo"DEBUG\\" /Fd"DEBUG\VC140.PDB" /Gd /TP /analyze- C:\USERS\KADE.BROWN\DESKTOP\OPENGL(BASE)\OPENGL(BASE)\SRC\APPLICATION.CPP
^C:\USERS\KADE.BROWN\DESKTOP\OPENGL(BASE)\OPENGL(BASE)\SRC\MAIN.CPP
/c /I"C:\USERS\KADE.BROWN\DESKTOP\OPENGL(BASE)\/OPENGL(BASE)/DEP" /I"C:\USERS\KADE.BROWN\DESKTOP\OPENGL(BASE)\/OPENGL(BASE)/HEADERS/" /ZI /nologo /W3 /WX- /Od /Oy- /D WIN32 /D _DEBUG /D _CONSOLE /D _UNICODE /D UNICODE /Gm /EHsc /RTC1 /MDd /GS /fp:precise /Zc:wchar_t /Zc:forScope /Zc:inline /Fo"DEBUG\\" /Fd"DEBUG\VC140.PDB" /Gd /TP /analyze- C:\USERS\KADE.BROWN\DESKTOP\OPENGL(BASE)\OPENGL(BASE)\SRC\MAIN.CPP
^C:\USERS\KADE.BROWN\DESKTOP\OPENGL(BASE)\OPENGL(BASE)\SRC\DELTATIME.CPP
/c /I"C:\USERS\KADE.BROWN\DESKTOP\OPENGL(BASE)\/OPENGL(BASE)/DEP" /I"C:\USERS\KADE.BROWN\DESKTOP\OPENGL(BASE)\/OPENGL(BASE)/HEADERS/" /ZI /nologo /W3 /WX- /Od /Oy- /D WIN32 /D _DEBUG /D _CONSOLE /D _UNICODE /D UNICODE /Gm /EHsc /RTC1 /MDd /GS /fp:precise /Zc:wchar_t /Zc:forScope /Zc:inline /Fo"DEBUG\\" /Fd"DEBUG\VC140.PDB" /Gd /TP /analyze- C:\USERS\KADE.BROWN\DESKTOP\OPENGL(BASE)\OPENGL(BASE)\SRC\DELTATIME.CPP
^C:\USERS\KADE.BROWN\DESKTOP\OPENGL(BASE)\OPENGL(BASE)\SRC\TEXTURE.CPP
/c /I"C:\USERS\KADE.BROWN\DESKTOP\OPENGL(BASE)\/OPENGL(BASE)/DEP" /I"C:\USERS\KADE.BROWN\DESKTOP\OPENGL(BASE)\/OPENGL(BASE)/HEADERS/" /ZI /nologo /W3 /WX- /Od /Oy- /D WIN32 /D _DEBUG /D _CONSOLE /D _UNICODE /D UNICODE /Gm /EHsc /RTC1 /MDd /GS /fp:precise /Zc:wchar_t /Zc:forScope /Zc:inline /Fo"DEBUG\\" /Fd"DEBUG\VC140.PDB" /Gd /TP /analyze- C:\USERS\KADE.BROWN\DESKTOP\OPENGL(BASE)\OPENGL(BASE)\SRC\TEXTURE.CPP
