^C:\USERS\KADE.BROWN\DESKTOP\OPENGL(BASE)\OPENGL(BASE)\SRC\APPLICATION.CPP|C:\USERS\KADE.BROWN\DESKTOP\OPENGL(BASE)\OPENGL(BASE)\SRC\CAMERA.CPP|C:\USERS\KADE.BROWN\DESKTOP\OPENGL(BASE)\OPENGL(BASE)\SRC\DEBUG.CPP|C:\USERS\KADE.BROWN\DESKTOP\OPENGL(BASE)\OPENGL(BASE)\SRC\DELTATIME.CPP|C:\USERS\KADE.BROWN\DESKTOP\OPENGL(BASE)\OPENGL(BASE)\SRC\FLYCAMERA.CPP|C:\USERS\KADE.BROWN\DESKTOP\OPENGL(BASE)\OPENGL(BASE)\SRC\GAMEOBJECT.CPP|C:\USERS\KADE.BROWN\DESKTOP\OPENGL(BASE)\OPENGL(BASE)\SRC\GRID.CPP|C:\USERS\KADE.BROWN\DESKTOP\OPENGL(BASE)\OPENGL(BASE)\SRC\MAIN.CPP|C:\USERS\KADE.BROWN\DESKTOP\OPENGL(BASE)\OPENGL(BASE)\SRC\PROGRAM.CPP|C:\USERS\KADE.BROWN\DESKTOP\OPENGL(BASE)\OPENGL(BASE)\SRC\TEXTURE.CPP
C:\USERS\KADE.BROWN\DESKTOP\OPENGL(BASE)\OPENGL(BASE)\DEBUG\VC140.PDB
C:\USERS\KADE.BROWN\DESKTOP\OPENGL(BASE)\OPENGL(BASE)\DEBUG\VC140.IDB
C:\USERS\KADE.BROWN\DESKTOP\OPENGL(BASE)\OPENGL(BASE)\DEBUG\GRID.OBJ
C:\USERS\KADE.BROWN\DESKTOP\OPENGL(BASE)\OPENGL(BASE)\DEBUG\DEBUG.OBJ
C:\USERS\KADE.BROWN\DESKTOP\OPENGL(BASE)\OPENGL(BASE)\DEBUG\CAMERA.OBJ
C:\USERS\KADE.BROWN\DESKTOP\OPENGL(BASE)\OPENGL(BASE)\DEBUG\FLYCAMERA.OBJ
C:\USERS\KADE.BROWN\DESKTOP\OPENGL(BASE)\OPENGL(BASE)\DEBUG\PROGRAM.OBJ
C:\USERS\KADE.BROWN\DESKTOP\OPENGL(BASE)\OPENGL(BASE)\DEBUG\GAMEOBJECT.OBJ
C:\USERS\KADE.BROWN\DESKTOP\OPENGL(BASE)\OPENGL(BASE)\DEBUG\APPLICATION.OBJ
C:\USERS\KADE.BROWN\DESKTOP\OPENGL(BASE)\OPENGL(BASE)\DEBUG\MAIN.OBJ
C:\USERS\KADE.BROWN\DESKTOP\OPENGL(BASE)\OPENGL(BASE)\DEBUG\DELTATIME.OBJ
C:\USERS\KADE.BROWN\DESKTOP\OPENGL(BASE)\OPENGL(BASE)\DEBUG\TEXTURE.OBJ
^C:\USERS\KADE.BROWN\DESKTOP\OPENGL(BASE)\OPENGL(BASE)\SRC\GRID.CPP
C:\USERS\KADE.BROWN\DESKTOP\OPENGL(BASE)\OPENGL(BASE)\DEBUG\VC140.PDB
^C:\USERS\KADE.BROWN\DESKTOP\OPENGL(BASE)\OPENGL(BASE)\SRC\DEBUG.CPP
C:\USERS\KADE.BROWN\DESKTOP\OPENGL(BASE)\OPENGL(BASE)\DEBUG\VC140.PDB
^C:\USERS\KADE.BROWN\DESKTOP\OPENGL(BASE)\OPENGL(BASE)\SRC\CAMERA.CPP
C:\USERS\KADE.BROWN\DESKTOP\OPENGL(BASE)\OPENGL(BASE)\DEBUG\VC140.PDB
^C:\USERS\KADE.BROWN\DESKTOP\OPENGL(BASE)\OPENGL(BASE)\SRC\FLYCAMERA.CPP
C:\USERS\KADE.BROWN\DESKTOP\OPENGL(BASE)\OPENGL(BASE)\DEBUG\VC140.PDB
^C:\USERS\KADE.BROWN\DESKTOP\OPENGL(BASE)\OPENGL(BASE)\SRC\PROGRAM.CPP
C:\USERS\KADE.BROWN\DESKTOP\OPENGL(BASE)\OPENGL(BASE)\DEBUG\VC140.PDB
^C:\USERS\KADE.BROWN\DESKTOP\OPENGL(BASE)\OPENGL(BASE)\SRC\GAMEOBJECT.CPP
C:\USERS\KADE.BROWN\DESKTOP\OPENGL(BASE)\OPENGL(BASE)\DEBUG\VC140.PDB
^C:\USERS\KADE.BROWN\DESKTOP\OPENGL(BASE)\OPENGL(BASE)\SRC\APPLICATION.CPP
C:\USERS\KADE.BROWN\DESKTOP\OPENGL(BASE)\OPENGL(BASE)\DEBUG\VC140.PDB
C:\USERS\KADE.BROWN\DESKTOP\OPENGL(BASE)\OPENGL(BASE)\DEBUG\VC140.IDB
C:\USERS\KADE.BROWN\DESKTOP\OPENGL(BASE)\OPENGL(BASE)\DEBUG\APPLICATION.OBJ
^C:\USERS\KADE.BROWN\DESKTOP\OPENGL(BASE)\OPENGL(BASE)\SRC\MAIN.CPP
C:\USERS\KADE.BROWN\DESKTOP\OPENGL(BASE)\OPENGL(BASE)\DEBUG\VC140.PDB
^C:\USERS\KADE.BROWN\DESKTOP\OPENGL(BASE)\OPENGL(BASE)\SRC\DELTATIME.CPP
C:\USERS\KADE.BROWN\DESKTOP\OPENGL(BASE)\OPENGL(BASE)\DEBUG\VC140.PDB
^C:\USERS\KADE.BROWN\DESKTOP\OPENGL(BASE)\OPENGL(BASE)\SRC\TEXTURE.CPP
C:\USERS\KADE.BROWN\DESKTOP\OPENGL(BASE)\OPENGL(BASE)\DEBUG\VC140.PDB
