^C:\USERS\KADE\DOCUMENTS\VISUAL STUDIO 2015\PROJECTS\OPENGL(BASE)\OPENGL(BASE)\DEBUG\APPLICATION.OBJ|C:\USERS\KADE\DOCUMENTS\VISUAL STUDIO 2015\PROJECTS\OPENGL(BASE)\OPENGL(BASE)\DEBUG\GAMEOBJECT.OBJ|C:\USERS\KADE\DOCUMENTS\VISUAL STUDIO 2015\PROJECTS\OPENGL(BASE)\OPENGL(BASE)\DEBUG\MAIN.OBJ|C:\USERS\KADE\DOCUMENTS\VISUAL STUDIO 2015\PROJECTS\OPENGL(BASE)\OPENGL(BASE)\DEBUG\TIME.OBJ
/OUT:"C:\USERS\KADE\DOCUMENTS\VISUAL STUDIO 2015\PROJECTS\OPENGL(BASE)\DEBUG\OPENGL(BASE).EXE" /INCREMENTAL /NOLOGO /LIBPATH:"C:\USERS\KADE\DOCUMENTS\VISUAL STUDIO 2015\PROJECTS\OPENGL(BASE)\OPENGL(BASE)\DEP\GLFW\LIB" /LIBPATH:"C:\USERS\KADE\DOCUMENTS\VISUAL STUDIO 2015\PROJECTS\OPENGL(BASE)\OPENGL(BASE)\DEP\FBXLOADER\VS2015" FBXLOADER_D.LIB OPENGL32.LIB GLFW3.LIB KERNEL32.LIB USER32.LIB GDI32.LIB WINSPOOL.LIB COMDLG32.LIB ADVAPI32.LIB SHELL32.LIB OLE32.LIB OLEAUT32.LIB UUID.LIB ODBC32.LIB ODBCCP32.LIB KERNEL32.LIB USER32.LIB GDI32.LIB WINSPOOL.LIB COMDLG32.LIB ADVAPI32.LIB SHELL32.LIB OLE32.LIB OLEAUT32.LIB UUID.LIB ODBC32.LIB ODBCCP32.LIB /MANIFEST /MANIFESTUAC:"level='asInvoker' uiAccess='false'" /manifest:embed /Debug /PDB:"C:\USERS\KADE\DOCUMENTS\VISUAL STUDIO 2015\PROJECTS\OPENGL(BASE)\DEBUG\OPENGL(BASE).PDB" /SUBSYSTEM:CONSOLE /TLBID:1 /DYNAMICBASE /NXCOMPAT /IMPLIB:"C:\USERS\KADE\DOCUMENTS\VISUAL STUDIO 2015\PROJECTS\OPENGL(BASE)\DEBUG\OPENGL(BASE).LIB" /MACHINE:X86 DEBUG\GAMEOBJECT.OBJDEBUG\APPLICATION.OBJDEBUG\MAIN.OBJDEBUG\TIME.OBJ
^C:\USERS\KADE\DESKTOP\OPENGL(BASE)\OPENGL(BASE)\DEBUG\APPLICATION.OBJ|C:\USERS\KADE\DESKTOP\OPENGL(BASE)\OPENGL(BASE)\DEBUG\CAMERA.OBJ|C:\USERS\KADE\DESKTOP\OPENGL(BASE)\OPENGL(BASE)\DEBUG\DEBUG.OBJ|C:\USERS\KADE\DESKTOP\OPENGL(BASE)\OPENGL(BASE)\DEBUG\DELTATIME.OBJ|C:\USERS\KADE\DESKTOP\OPENGL(BASE)\OPENGL(BASE)\DEBUG\FLYCAMERA.OBJ|C:\USERS\KADE\DESKTOP\OPENGL(BASE)\OPENGL(BASE)\DEBUG\GAMEOBJECT.OBJ|C:\USERS\KADE\DESKTOP\OPENGL(BASE)\OPENGL(BASE)\DEBUG\GRID.OBJ|C:\USERS\KADE\DESKTOP\OPENGL(BASE)\OPENGL(BASE)\DEBUG\MAIN.OBJ|C:\USERS\KADE\DESKTOP\OPENGL(BASE)\OPENGL(BASE)\DEBUG\PROGRAM.OBJ|C:\USERS\KADE\DESKTOP\OPENGL(BASE)\OPENGL(BASE)\DEBUG\TEXTURE.OBJ
/OUT:"C:\USERS\KADE\DESKTOP\OPENGL(BASE)\DEBUG\OPENGL(BASE).EXE" /INCREMENTAL /NOLOGO /LIBPATH:"C:\USERS\KADE\DESKTOP\OPENGL(BASE)\OPENGL(BASE)\DEP\GLFW\LIB" /LIBPATH:"C:\USERS\KADE\DESKTOP\OPENGL(BASE)\OPENGL(BASE)\DEP\FBXLOADER\VS2015" FBXLOADER_D.LIB OPENGL32.LIB GLFW3.LIB KERNEL32.LIB USER32.LIB GDI32.LIB WINSPOOL.LIB COMDLG32.LIB ADVAPI32.LIB SHELL32.LIB OLE32.LIB OLEAUT32.LIB UUID.LIB ODBC32.LIB ODBCCP32.LIB KERNEL32.LIB USER32.LIB GDI32.LIB WINSPOOL.LIB COMDLG32.LIB ADVAPI32.LIB SHELL32.LIB OLE32.LIB OLEAUT32.LIB UUID.LIB ODBC32.LIB ODBCCP32.LIB /MANIFEST /MANIFESTUAC:"level='asInvoker' uiAccess='false'" /manifest:embed /Debug /PDB:"C:\USERS\KADE\DESKTOP\OPENGL(BASE)\DEBUG\OPENGL(BASE).PDB" /SUBSYSTEM:CONSOLE /TLBID:1 /DYNAMICBASE /NXCOMPAT /IMPLIB:"C:\USERS\KADE\DESKTOP\OPENGL(BASE)\DEBUG\OPENGL(BASE).LIB" /MACHINE:X86 DEBUG\GRID.OBJDEBUG\DEBUG.OBJDEBUG\CAMERA.OBJDEBUG\FLYCAMERA.OBJDEBUG\PROGRAM.OBJDEBUG\GAMEOBJECT.OBJDEBUG\APPLICATION.OBJDEBUG\MAIN.OBJDEBUG\DELTATIME.OBJDEBUG\TEXTURE.OBJ
^C:\USERS\KADE.BROWN\DESKTOP\OPENGL(BASE)\OPENGL(BASE)\DEBUG\APPLICATION.OBJ|C:\USERS\KADE.BROWN\DESKTOP\OPENGL(BASE)\OPENGL(BASE)\DEBUG\CAMERA.OBJ|C:\USERS\KADE.BROWN\DESKTOP\OPENGL(BASE)\OPENGL(BASE)\DEBUG\DEBUG.OBJ|C:\USERS\KADE.BROWN\DESKTOP\OPENGL(BASE)\OPENGL(BASE)\DEBUG\DELTATIME.OBJ|C:\USERS\KADE.BROWN\DESKTOP\OPENGL(BASE)\OPENGL(BASE)\DEBUG\FLYCAMERA.OBJ|C:\USERS\KADE.BROWN\DESKTOP\OPENGL(BASE)\OPENGL(BASE)\DEBUG\GAMEOBJECT.OBJ|C:\USERS\KADE.BROWN\DESKTOP\OPENGL(BASE)\OPENGL(BASE)\DEBUG\GRID.OBJ|C:\USERS\KADE.BROWN\DESKTOP\OPENGL(BASE)\OPENGL(BASE)\DEBUG\MAIN.OBJ|C:\USERS\KADE.BROWN\DESKTOP\OPENGL(BASE)\OPENGL(BASE)\DEBUG\PROGRAM.OBJ|C:\USERS\KADE.BROWN\DESKTOP\OPENGL(BASE)\OPENGL(BASE)\DEBUG\TEXTURE.OBJ
/OUT:"C:\USERS\KADE.BROWN\DESKTOP\OPENGL(BASE)\DEBUG\OPENGL(BASE).EXE" /INCREMENTAL /NOLOGO /LIBPATH:"C:\USERS\KADE.BROWN\DESKTOP\OPENGL(BASE)\OPENGL(BASE)\DEP\GLFW\LIB" /LIBPATH:"C:\USERS\KADE.BROWN\DESKTOP\OPENGL(BASE)\OPENGL(BASE)\DEP\FBXLOADER\VS2015" FBXLOADER_D.LIB OPENGL32.LIB GLFW3.LIB KERNEL32.LIB USER32.LIB GDI32.LIB WINSPOOL.LIB COMDLG32.LIB ADVAPI32.LIB SHELL32.LIB OLE32.LIB OLEAUT32.LIB UUID.LIB ODBC32.LIB ODBCCP32.LIB KERNEL32.LIB USER32.LIB GDI32.LIB WINSPOOL.LIB COMDLG32.LIB ADVAPI32.LIB SHELL32.LIB OLE32.LIB OLEAUT32.LIB UUID.LIB ODBC32.LIB ODBCCP32.LIB /MANIFEST /MANIFESTUAC:"level='asInvoker' uiAccess='false'" /manifest:embed /Debug /PDB:"C:\USERS\KADE.BROWN\DESKTOP\OPENGL(BASE)\DEBUG\OPENGL(BASE).PDB" /SUBSYSTEM:CONSOLE /TLBID:1 /DYNAMICBASE /NXCOMPAT /IMPLIB:"C:\USERS\KADE.BROWN\DESKTOP\OPENGL(BASE)\DEBUG\OPENGL(BASE).LIB" /MACHINE:X86 DEBUG\GRID.OBJDEBUG\DEBUG.OBJDEBUG\CAMERA.OBJDEBUG\FLYCAMERA.OBJDEBUG\PROGRAM.OBJDEBUG\GAMEOBJECT.OBJDEBUG\APPLICATION.OBJDEBUG\MAIN.OBJDEBUG\DELTATIME.OBJDEBUG\TEXTURE.OBJ
